<?xml version="1.0" encoding="utf-8"?>
<!-- Generator: Adobe Illustrator 26.2.0, SVG Export Plug-In . SVG Version: 6.00 Build 0)  -->
<svg version="1.1" id="Layer_1" xmlns="http://www.w3.org/2000/svg" xmlns:xlink="http://www.w3.org/1999/xlink" x="0px" y="0px"
	 viewBox="0 0 252 252" style="enable-background:new 0 0 252 252;" xml:space="preserve">
<style type="text/css">
	.st0{fill:#FFFFFF;}
</style>
<path class="st0" d="M216.2,236.1h-4.9l-26.7-41.9v-5.6h15v-63.5c0-44.7-36.4-81.2-81.2-81.2c-44.7,0-81.2,36.4-81.2,81.2
	s36.4,81.2,81.2,81.2c16.9,0,33-5.1,46.8-14.8l3.5,4.9c-14.7,10.4-32.1,15.9-50.2,15.9c-48.1,0-87.2-39.1-87.2-87.2
	c0-48.1,39.1-87.2,87.2-87.2c48.1,0,87.2,39.1,87.2,87.2v69.5h-13.7l21.8,34.2l22-34.2h-14.2l0.1-69.5
	c0-56.9-46.3-103.2-103.2-103.2c-56.9,0-103.2,46.3-103.2,103.2s46.3,103.2,103.2,103.2c21.3,0,41.8-6.4,59.2-18.6l3.4,4.9
	c-18.4,12.9-40.1,19.7-62.6,19.7c-60.2,0-109.2-49-109.2-109.2c0-60.2,49-109.2,109.2-109.2s109.2,49,109.2,109.2l-0.1,63.5h15.2
	v6.2L216.2,236.1z"/>
<g>
	<path class="st0" d="M106.1,139.8c-0.1,4.4,0.9,7.9,2.9,10.4c2,2.5,5.3,3.9,9.9,4V130c-2.7-0.7-5.4-1.6-8.1-2.6
		c-2.7-1-5.1-2.4-7.3-4c-2.2-1.6-3.9-3.7-5.2-6.1c-1.3-2.5-2-5.5-2-9.2c0-3.2,0.6-6,1.8-8.5c1.2-2.4,2.9-4.5,5-6.1
		c2.1-1.6,4.5-2.9,7.2-3.8c2.7-0.9,5.6-1.3,8.6-1.3v-7.8h4.3v7.8c3,0,5.8,0.4,8.5,1.2c2.7,0.8,5,2,7,3.6c2,1.6,3.5,3.6,4.7,6.1
		c1.2,2.5,1.8,5.3,1.8,8.6h-11.4c-0.1-3.4-1-6-2.7-7.8c-1.6-1.8-4.2-2.7-7.8-2.7v21.1c3,0.8,5.9,1.7,8.8,2.8
		c2.9,1.1,5.4,2.4,7.6,4.1c2.2,1.7,4,3.7,5.3,6.2c1.3,2.5,2,5.5,2,9.1c0,3.7-0.6,7-1.8,9.8c-1.2,2.8-2.9,5.1-5,6.9
		c-2.1,1.8-4.6,3.2-7.5,4.2c-2.9,1-6,1.5-9.3,1.7v7.8h-4.3v-7.8c-3.6-0.1-6.9-0.6-9.9-1.7s-5.6-2.6-7.7-4.5c-2.1-2-3.8-4.4-4.9-7.2
		c-1.2-2.9-1.7-6.2-1.6-9.9H106.1z M118.9,97.4c-3.6,0-6.4,0.8-8.4,2.2c-2,1.5-2.9,4-2.9,7.6c0,1.6,0.3,3,1,4.1
		c0.7,1.1,1.5,2.1,2.5,2.9c1,0.8,2.2,1.4,3.6,1.9c1.4,0.5,2.8,0.9,4.1,1.2V97.4z M123.2,154.2c3.6-0.3,6.5-1.3,8.8-3.2
		c2.3-1.8,3.5-4.8,3.5-8.8c0-1.9-0.3-3.4-1-4.7c-0.7-1.3-1.6-2.3-2.8-3.2c-1.2-0.9-2.5-1.6-4-2.1c-1.5-0.5-3-1-4.5-1.4V154.2z"/>
</g>
</svg>
