<?xml version="1.0" encoding="utf-8"?>
<!-- Generator: Adobe Illustrator 26.2.0, SVG Export Plug-In . SVG Version: 6.00 Build 0)  -->
<svg version="1.1" id="Layer_1" xmlns="http://www.w3.org/2000/svg" xmlns:xlink="http://www.w3.org/1999/xlink" x="0px" y="0px"
	 viewBox="0 0 252 280.8" style="enable-background:new 0 0 252 280.8;" xml:space="preserve">
<style type="text/css">
	.st0{fill:#858588;}
</style>
<g>
	<polygon class="st0" points="71.5,68 72.5,66.6 68.9,66 68.7,66.4 70.4,68.1 	"/>
	<path class="st0" d="M71.6,69.4l2.1-0.6l3.2-3.3c0.3-0.3,0.6-0.6,1-1c0.2-0.2,0.5-0.4,0.6-0.5c0,0,0.3-0.2,0.9-0.6
		c0.5-0.4,1.2-0.7,1.9-0.9c-0.4-0.2-0.8-0.3-1.2-0.3c-1,0-2.1,0.5-3.3,1.4c-1.2,0.9-2.2,1.8-2.9,2.7l-1.6,2
		C72,68.7,71.8,69.1,71.6,69.4z"/>
	<path class="st0" d="M61.4,73.7l7.9-0.4l4-3.9L62,72.6c-0.3,0.1-0.5,0.2-0.6,0.4c-0.2,0.2-0.2,0.4-0.2,0.6
		C61.2,73.6,61.3,73.6,61.4,73.7z"/>
	<g>
		<path class="st0" d="M79.1,69.8c0,0,1.6-2,2.3-2.8c0.5-0.5,0.9-1,1.2-1.4c0.4-0.5,0.6-0.9,0.7-1.3l0,0l0,0
			c0.1-0.2,0.1-0.3,0.1-0.5c0-0.8-0.4-1.2-1.2-1.2c-0.4,0-1,0.2-1.7,0.6c-0.7,0.4-1.8,1.4-3.1,2.8l-2.6,2.6c0,0-9.6,9.8-14.1,13.6
			c-7.6,6.3-16.6,5.7-16.2-5.1c0,0-2,5.3,1.5,8.8c5,4.9,11.6,1.8,15.2-0.5c6.1-3.9,10.9-8.1,14.4-11.7l7.4-0.2
			c0.5,0,0.8-0.3,1.2-0.9l0.2-0.4L79.1,69.8z"/>
		<g>
			<path class="st0" d="M66.7,81.5c3.6-2.7,6.6-5.4,9-7.9l7.4-0.2c0.5,0,0.8-0.3,1.2-0.9l0.2-0.4l-5.2-2.3c0,0,1.6-2,2.3-2.8
				c0.5-0.5,0.9-1,1.2-1.4c0.4-0.5,0.6-0.9,0.7-1.3l0,0l0,0c0.1-0.2,0.1-0.3,0.1-0.5c0-0.8-0.4-1.2-1.2-1.2c-0.4,0-1,0.2-1.7,0.6
				c-0.7,0.4-1.8,1.4-3.1,2.8L75,68.6c0,0-5.8,6-10.5,10.4C65.1,79.8,65.9,80.7,66.7,81.5z"/>
			<path class="st0" d="M60.7,82.2c-3.1,2.6-6.5,4.1-9.4,4.1c-4,0-7-2.8-6.8-9.2c0,0-2,5.3,1.5,8.8c1.9,1.9,4.1,2.6,6.3,2.6
				c3.4,0,6.7-1.7,8.9-3.1c0.6-0.4,1.2-0.8,1.8-1.2c-0.6-0.7-1.3-1.5-2-2.2C60.9,82,60.8,82.1,60.7,82.2z"/>
			<path class="st0" d="M51.5,70.4c-2.4-0.2-5.9,2.4-6.2,5.1c3.7-4.4,10.5,1,15.5,6.1c0.9-0.8,2-1.8,3.2-2.9
				C59.6,74.5,54.6,70.6,51.5,70.4z"/>
			<path class="st0" d="M66.4,88.3c0.1,0.1,0.2,0.2,0.3,0.2h5.4c0.3,0,0.5-0.5,0.3-0.8c-1-1.2-2.9-3.4-5.4-6
				c-1.2,0.9-2.4,1.8-3.7,2.7C64.9,86.3,66.1,87.8,66.4,88.3z"/>
		</g>
	</g>
	<polygon class="st0" points="67.9,70.4 71.2,69.5 68.1,66.5 68.5,65.8 63.1,67.5 62.2,69.1 67,68.5 	"/>
</g>
<g>
	<path class="st0" d="M1.8,240.9c1-2.5,2.9-3.1,5.5-3.1c9.8,0.1,19.6,0,29.5,0c0.5,0,1,0,1.8,0c0-0.6,0-1.1,0-1.6
		c0-11.8,0-23.7,0-35.5c0-2.5,1.3-4.7,4.6-4.6c13.5,0.1,27,0.1,40.5,0c2.4,0,4.5,1.5,4.4,4.4c-0.1,3.2,0,6.5,0,9.7
		c0,1,0.2,1.5,1.4,1.5c7.5-0.1,15,0,22.6,0c0.4,0,0.8,0,1.3,0c-0.1-0.4-0.1-0.6-0.1-0.8c-1-2.2-1.3-4.5-1.3-7c0-22.2,0-44.3,0-66.5
		c0-1.8,0-1.8-1.8-1.8c-1.3,0-2.7,0-4,0c-2.7,0-3.7-0.7-4.7-3.2c-2.9-7.2-5.8-14.4-8.6-21.6c-0.4-1.1-1-1.5-2.2-1.5
		c-14.2,0-28.5,0-42.7,0c-12.1,0-22.3-8.4-24.5-20.3c-0.3-1.7-0.4-3.5-0.4-5.2c0-20.2,0-40.4-0.1-60.6c0-2.6,0.6-4.4,3.2-5.3h199.9
		c2.5,0.8,3.3,2.7,3.2,5.2c-0.1,20.2,0,40.3-0.1,60.5c0,1.9-0.1,3.9-0.5,5.8c-2.6,12-12.4,19.8-24.7,19.8c-14.1,0-28.3,0-42.4,0
		c-1.2,0-1.7,0.4-2.2,1.5c-2.8,7.2-5.8,14.5-8.7,21.7c-0.9,2.3-2,3-4.5,3c-1.3,0-2.6,0-3.9,0c-2.3,0-2-0.3-2,2c0,21.5,0,42.9,0,64.4
		c0,2.5,0.1,5.1-0.7,7.5c0,0.1,0.1,0.2,0.1,0.4c2.7-1,5.1-2.6,7.1-4.6c4.2-4.1,6.5-9.1,6.8-15c0.2-3.8,1.4-4.9,5.2-4.9
		c13.1,0,26.3,0,39.4,0c3.5,0,4.9,1.4,4.9,4.9c0,15.2,0,30.5,0,45.7c0,1.7,0,1.7,1.7,1.7c13.7,0,27.5,0,41.2,0c2.1,0,3.2,0.7,4,2.7
		c0.1,0.1,0.2,0.3,0.3,0.4c0,7.4,0,14.7,0,22.1c-0.5,1.7-1.7,2.9-3.4,3.4c-80.5,0-161.1,0-241.6,0c-1.7-0.5-2.9-1.7-3.4-3.4
		C1.8,255.6,1.8,248.3,1.8,240.9z M32,25.7c-1.6,0-1.6,0-1.6,1.6c0,18.8,0,37.6,0,56.4c0,1,0.1,1.9,0.2,2.9
		c0.8,8.4,8.2,15.2,16.7,15.2c52.5,0,105.1,0,157.6,0c1.1,0,2.3-0.1,3.4-0.4c8-1.9,13.3-8.6,13.3-17c0-19,0-38.1,0-57.1
		c0-1.5,0-1.5-1.6-1.5L32,25.7z M195.2,193.1c-0.4,0-0.7-0.1-0.9-0.1c-10.8,0-21.7,0-32.5,0c-1,0-1.1,0.5-1.2,1.3
		c-2.2,13.7-14.7,24.6-28.6,24.7c-15.8,0.1-31.6,0-47.4,0.1c-2.8,0-4.4-2-4.4-4.5c0.1-3.3,0-6.5,0-9.8c0-1-0.3-1.3-1.3-1.3
		c-10.5,0-20.9,0-31.4,0c-1.1,0-1.4,0.3-1.4,1.4c0,10.5,0,20.9,0,31.4c0,1.1,0.2,1.5,1.4,1.5c48.7,0,97.4,0,146.1,0
		c1.6,0,1.6,0,1.6-1.6c0-13.9,0-27.7,0-41.6C195.2,194.1,195.2,193.7,195.2,193.1z M242.4,245.5c-77.7,0-155.3,0-232.9,0
		c0,4.4,0,8.7,0,13.1c77.7,0,155.3,0,232.9,0C242.4,254.2,242.4,249.9,242.4,245.5z M100.3,109.4c0.1,0.4,0.2,0.8,0.4,1.1
		c2.2,5.5,4.4,10.9,6.5,16.4c0.3,0.8,0.8,1,1.5,1c11.4,0,22.9,0,34.3,0c0.9,0,1.3-0.3,1.7-1.1c2.1-5.4,4.3-10.9,6.5-16.3
		c0.1-0.3,0.2-0.7,0.3-1.1C134.5,109.4,117.5,109.4,100.3,109.4z M119.3,185c-0.1,0.6-0.1,0.9-0.1,1.3c0,6.5,0.1,13,0.2,19.5
		c0.1,3.6,3,6.5,6.6,6.5c3.6,0,6.6-3,6.6-6.6l0-13.1c0-0.7-0.2-1.2-0.9-1.5c-1.6-0.7-3.1-1.5-4.7-2.3
		C124.5,187.6,122.1,186.4,119.3,185z M119.4,135.6c0,4.8,0,9.4,0,14.1c0,0.4,0.5,0.9,0.9,1.1c3.7,1.9,7.4,3.7,11.1,5.6
		c0.3,0.2,0.6,0.3,1.1,0.4c0-7.1,0-14.1,0-21.2C128.1,135.6,123.8,135.6,119.4,135.6z M119.5,158.8c0,0.5-0.1,0.8-0.1,1.1
		c0,5.2,0,10.3,0,15.5c0,0.8,0.3,1.2,0.9,1.5c3.8,1.8,7.5,3.7,11.3,5.6c0.3,0.1,0.6,0.2,1.1,0.4c0-5.5,0-10.8,0-16.2
		c0-0.2,0.1-0.5,0-0.7c-0.2-0.4-0.5-0.8-0.9-1c-2.3-1.2-4.6-2.3-6.9-3.5C123.1,160.6,121.4,159.8,119.5,158.8z"/>
	<path class="st0" d="M43.8,162.6c0-2.3,2.8-4.3,5.3-3c3.3,1.7,6.6,3.5,9.8,5.4c1.7,1,2.1,3.2,1.2,4.9c-0.9,1.7-3.1,2.6-4.9,1.7
		c-3.3-1.7-6.6-3.6-9.9-5.4C44.3,165.5,43.8,164.4,43.8,162.6z"/>
	<path class="st0" d="M75.3,147.3c-0.8-0.4-1.8-0.7-2.5-1.3c-2.5-2.4-5-4.8-7.5-7.3c-1.6-1.6-1.6-3.9-0.1-5.4c1.5-1.5,3.8-1.5,5.3,0
		c2.6,2.5,5.1,4.9,7.6,7.5c1.1,1.2,1.4,2.6,0.7,4.1C78.2,146.3,77.1,147,75.3,147.3z"/>
	<path class="st0" d="M94.4,157.8c-0.2,1.6-0.9,2.7-2.2,3.4c-1.4,0.7-2.9,0.7-4.1-0.4c-1.6-1.3-3.1-2.7-4.5-4.2
		c-1.3-1.4-1.2-3.7,0.1-5.1c1.3-1.4,3.5-1.6,4.9-0.4c1.6,1.4,3.2,2.9,4.7,4.4C93.9,156.2,94.1,157.1,94.4,157.8z"/>
	<path class="st0" d="M74.9,182.1c-0.6-0.2-1.3-0.4-1.9-0.7c-1.4-0.7-2.8-1.5-4.2-2.3c-2-1.2-2.7-3.3-1.7-5.3c1.1-2,3.3-2.6,5.4-1.4
		c1.5,0.8,3.1,1.6,4.5,2.5c1.5,0.9,2.1,2.6,1.6,4.3C78.1,180.9,76.7,182,74.9,182.1z"/>
	<path class="st0" d="M198.6,157.2c0.1-1.1,0.7-2.2,1.9-2.8c3.1-1.7,6.2-3.5,9.3-5.1c1.9-1,4.1-0.3,5.1,1.5c1,1.8,0.5,4-1.4,5.1
		c-3.1,1.8-6.2,3.5-9.3,5.1C201.5,162.4,198.5,160.5,198.6,157.2z"/>
	<path class="st0" d="M195.1,125.7c-0.5,0.9-0.8,1.9-1.4,2.5c-2.4,2.5-4.8,4.9-7.3,7.2c-1.7,1.6-4,1.6-5.5,0.1
		c-1.5-1.5-1.4-3.9,0.2-5.5c2.5-2.4,4.9-4.9,7.4-7.3c1.2-1.2,2.7-1.3,4.2-0.6C194.2,122.7,194.9,123.9,195.1,125.7z"/>
	<path class="st0" d="M184.2,171.5c-1.8,0-3.3-1-3.8-2.5c-0.5-1.7,0-3.5,1.5-4.4c1.7-1.1,3.5-2,5.3-2.9c1.6-0.8,3.6-0.1,4.6,1.3
		c1,1.5,1,3.7-0.4,4.7c-2,1.4-4.2,2.5-6.4,3.6C184.7,171.6,184.4,171.5,184.2,171.5z"/>
	<path class="st0" d="M176.5,144c-0.5,0.9-0.8,1.8-1.4,2.5c-1.2,1.3-2.6,2.6-3.9,3.8c-1.6,1.4-4,1.2-5.3-0.3
		c-1.3-1.5-1.3-3.8,0.1-5.3c1.3-1.3,2.7-2.6,4.1-3.8c1.2-1.1,2.7-1.2,4.1-0.6C175.5,141,176.2,142.2,176.5,144z"/>
	<path class="st0" d="M147.2,88.5c-7,0-12.6-4.4-14.2-11.2c-0.2-1-0.4-2.1-0.4-3.1c0-6.9,0-13.7,0-20.6c0-8.2,6.1-14.6,14.3-14.6
		l47,0c7.1,0,12.8,5,14.1,11.9c0.2,0.9,0.2,1.9,0.2,2.8c0,6.7,0,13.5,0,20.2c-0.1,7.1-4.4,12.6-11.2,14.2c-1.2,0.3-2.4,0.4-3.6,0.4
		L147.2,88.5z M141.5,67.5c-0.9,0-1.3,0.3-1.2,1.3c0.1,1.6,0,3.2,0,4.8c0,4.4,2.8,7.2,7.2,7.2l46.1,0c4,0,6.8-2.6,7-6.5
		c0.1-1.7,0.1-3.5,0.1-5.2c0-1.6,0-1.6-1.6-1.6C189.5,67.5,144.8,67.6,141.5,67.5z M199.5,59.9c0.4,0,1-0.4,1-0.6
		c0-2.6,0.2-5.3-0.3-7.8c-0.6-3.1-3.4-4.9-6.8-4.9l-45.7,0c-4.8,0-7.5,2.8-7.5,7.6c0,1.4,0,2.7,0,4.1c0,1.7,0,1.7,1.7,1.7
		C151.4,59.9,197.2,60,199.5,59.9z"/>
</g>
</svg>
